{
  "Comment.nvim": { "branch": "master", "commit": "e30b7f2008e52442154b66f7c519bfd2f1e32acb" },
  "LuaSnip": { "branch": "master", "commit": "03c8e67eb7293c404845b3982db895d59c0d1538" },
  "ale": { "branch": "master", "commit": "4fca3824cc34f731cb5b3e51844698052c5f6c52" },
  "cmp-buffer": { "branch": "main", "commit": "3022dbc9166796b644a841a02de8dd1cc1d311fa" },
  "cmp-cmdline": { "branch": "main", "commit": "d250c63aa13ead745e3a40f61fdd3470efde3923" },
  "cmp-nvim-lsp": { "branch": "main", "commit": "39e2eda76828d88b773cc27a3f61d2ad782c922d" },
  "cmp-path": { "branch": "main", "commit": "91ff86cd9c29299a64f968ebb45846c485725f23" },
  "cmp_luasnip": { "branch": "master", "commit": "05a9ab28b53f71d1aece421ef32fee2cb857a843" },
  "dressing.nvim": { "branch": "master", "commit": "1b7921eecc65af1baf8ac1dc06f0794934cbcfb2" },
  "drupal-smart-snippets": { "branch": "main", "commit": "32c825d22344b59f4c3d3693d5e3cc77462db0e5" },
  "friendly-snippets": { "branch": "main", "commit": "de8fce94985873666bd9712ea3e49ee17aadb1ed" },
  "gitsigns.nvim": { "branch": "main", "commit": "7c27a30450130cd59c4994a6755e3c5d74d83e76" },
  "lazy.nvim": { "branch": "main", "commit": "cf8ecc2c5e4332760431a33534240b0cbc6680ab" },
  "nvim-autopairs": { "branch": "master", "commit": "ee297f215e95a60b01fde33275cc3c820eddeebe" },
  "nvim-cmp": { "branch": "main", "commit": "29fb4854573355792df9e156cb779f0d31308796" },
  "nvim-dap": { "branch": "master", "commit": "7ff6936010b7222fea2caea0f67ed77f1b7c60dd" },
  "nvim-dap-ui": { "branch": "master", "commit": "ffa89839f97bad360e78428d5c740fdad9a0ff02" },
  "nvim-genghis": { "branch": "main", "commit": "081b0c13cfe5a818dc43442b2a8013133f4b0b50" },
  "nvim-lastplace": { "branch": "main", "commit": "91b996e062affebd7fe787f57a2a3e212457e87b" },
  "nvim-lspconfig": { "branch": "master", "commit": "54617a18f4cf46f0c2f6d024fa6feb7515fe036d" },
  "nvim-nio": { "branch": "master", "commit": "a428f309119086dc78dd4b19306d2d67be884eee" },
  "nvim-surround": { "branch": "main", "commit": "ec2dc7671067e0086cdf29c2f5df2dd909d5f71f" },
  "plenary.nvim": { "branch": "master", "commit": "2d9b06177a975543726ce5c73fca176cedbffe9d" },
  "telescope.nvim": { "branch": "master", "commit": "6312868392331c9c0f22725041f1ec2bef57c751" }
}
